<mxfile host="65bd71144e">
    <diagram id="sn7N2p0K2rXWDfSox-7a" name="Page-1">
        <mxGraphModel dx="1355" dy="979" grid="1" gridSize="10" guides="1" tooltips="1" connect="1" arrows="1" fold="1" page="1" pageScale="1" pageWidth="827" pageHeight="1169" math="0" shadow="0">
            <root>
                <mxCell id="0"/>
                <mxCell id="1" parent="0"/>
                <mxCell id="2" value="" style="rounded=0;whiteSpace=wrap;html=1;" parent="1" vertex="1">
                    <mxGeometry x="90" y="160" width="1070" height="600" as="geometry"/>
                </mxCell>
                <mxCell id="80" value="" style="group" vertex="1" connectable="0" parent="1">
                    <mxGeometry x="110" y="170" width="310" height="290" as="geometry"/>
                </mxCell>
                <mxCell id="81" value="" style="rounded=0;whiteSpace=wrap;html=1;" vertex="1" parent="80">
                    <mxGeometry width="310" height="290" as="geometry"/>
                </mxCell>
                <mxCell id="82" value="&lt;font color=&quot;#000000&quot;&gt;1&lt;/font&gt;" style="rounded=0;whiteSpace=wrap;html=1;fillColor=#d0cee2;strokeColor=#56517e;" vertex="1" parent="80">
                    <mxGeometry y="20" width="310" height="20" as="geometry"/>
                </mxCell>
                <mxCell id="83" value="&amp;nbsp; 訂單編號：" style="text;html=1;strokeColor=none;fillColor=none;align=left;verticalAlign=middle;whiteSpace=wrap;rounded=0;fontColor=#171717;" vertex="1" parent="80">
                    <mxGeometry y="20" width="80" height="20" as="geometry"/>
                </mxCell>
                <mxCell id="86" value="" style="rounded=0;whiteSpace=wrap;html=1;fillColor=#d0cee2;strokeColor=#56517e;" vertex="1" parent="80">
                    <mxGeometry y="50" width="310" height="240" as="geometry"/>
                </mxCell>
                <mxCell id="87" value="&amp;nbsp; 訂單內容：" style="text;html=1;strokeColor=none;fillColor=none;align=center;verticalAlign=middle;whiteSpace=wrap;rounded=0;fontColor=#030303;" vertex="1" parent="80">
                    <mxGeometry y="60" width="80" height="20" as="geometry"/>
                </mxCell>
                <mxCell id="95" value="外賣" style="text;html=1;strokeColor=none;fillColor=none;align=center;verticalAlign=middle;whiteSpace=wrap;rounded=0;fontColor=#030303;" vertex="1" parent="80">
                    <mxGeometry x="100" y="110" width="60" height="20" as="geometry"/>
                </mxCell>
                <mxCell id="99" value="&lt;font color=&quot;#000000&quot;&gt;全部刪除&amp;nbsp;&lt;/font&gt;" style="rounded=1;html=1;shadow=0;dashed=0;whiteSpace=wrap;fontSize=10;fillColor=#f8cecc;align=center;strokeColor=#b85450;" vertex="1" parent="80">
                    <mxGeometry y="260" width="140" height="16.88" as="geometry"/>
                </mxCell>
                <mxCell id="100" value="完成" style="rounded=1;html=1;shadow=0;dashed=0;whiteSpace=wrap;fontSize=10;fillColor=#666666;align=center;strokeColor=#4D4D4D;fontColor=#ffffff;" vertex="1" parent="80">
                    <mxGeometry x="160" y="260" width="146.5" height="16.88" as="geometry"/>
                </mxCell>
                <mxCell id="154" value="" style="group" vertex="1" connectable="0" parent="80">
                    <mxGeometry y="80" width="310" height="53.75999999999999" as="geometry"/>
                </mxCell>
                <mxCell id="88" value="" style="rounded=0;whiteSpace=wrap;html=1;fillColor=#f9f7ed;strokeColor=#36393d;" vertex="1" parent="154">
                    <mxGeometry width="310" height="20" as="geometry"/>
                </mxCell>
                <mxCell id="89" value="數量" style="text;html=1;strokeColor=none;fillColor=none;align=center;verticalAlign=middle;whiteSpace=wrap;rounded=0;fontColor=#030303;" vertex="1" parent="154">
                    <mxGeometry x="70" width="40" height="20" as="geometry"/>
                </mxCell>
                <mxCell id="91" value="下單時間" style="text;html=1;strokeColor=none;fillColor=none;align=center;verticalAlign=middle;whiteSpace=wrap;rounded=0;fontColor=#030303;" vertex="1" parent="154">
                    <mxGeometry x="160" width="51" height="20" as="geometry"/>
                </mxCell>
                <mxCell id="92" value="狀態" style="text;html=1;strokeColor=none;fillColor=none;align=center;verticalAlign=middle;whiteSpace=wrap;rounded=0;fontColor=#030303;" vertex="1" parent="154">
                    <mxGeometry x="211" width="51" height="20" as="geometry"/>
                </mxCell>
                <mxCell id="93" value="沙嗲牛麵" style="text;html=1;strokeColor=none;fillColor=none;align=center;verticalAlign=middle;whiteSpace=wrap;rounded=0;fontColor=#030303;" vertex="1" parent="154">
                    <mxGeometry x="10" y="30" width="60" height="20" as="geometry"/>
                </mxCell>
                <mxCell id="94" value="2" style="text;html=1;strokeColor=none;fillColor=none;align=center;verticalAlign=middle;whiteSpace=wrap;rounded=0;fontColor=#030303;" vertex="1" parent="154">
                    <mxGeometry x="60" y="30" width="60" height="20" as="geometry"/>
                </mxCell>
                <mxCell id="96" value="17：20" style="text;html=1;strokeColor=none;fillColor=none;align=center;verticalAlign=middle;whiteSpace=wrap;rounded=0;fontColor=#030303;" vertex="1" parent="154">
                    <mxGeometry x="155.5" y="30" width="60" height="20" as="geometry"/>
                </mxCell>
                <mxCell id="97" value="製作中" style="text;html=1;strokeColor=none;fillColor=none;align=center;verticalAlign=middle;whiteSpace=wrap;rounded=0;fontColor=#030303;" vertex="1" parent="154">
                    <mxGeometry x="206.5" y="30" width="60" height="20" as="geometry"/>
                </mxCell>
                <mxCell id="98" value="完成" style="rounded=1;html=1;shadow=0;dashed=0;whiteSpace=wrap;fontSize=10;fillColor=#666666;align=center;strokeColor=#4D4D4D;fontColor=#ffffff;" vertex="1" parent="154">
                    <mxGeometry x="263.5" y="20" width="40" height="16.88" as="geometry"/>
                </mxCell>
                <mxCell id="15" value="菜品" style="text;html=1;strokeColor=none;fillColor=none;align=center;verticalAlign=middle;whiteSpace=wrap;rounded=0;fontColor=#030303;" parent="154" vertex="1">
                    <mxGeometry x="10" width="40" height="20" as="geometry"/>
                </mxCell>
                <mxCell id="58" value="&lt;font color=&quot;#000000&quot;&gt;刪除&amp;nbsp;&lt;/font&gt;" style="rounded=1;html=1;shadow=0;dashed=0;whiteSpace=wrap;fontSize=10;fillColor=#f8cecc;align=center;strokeColor=#b85450;" parent="154" vertex="1">
                    <mxGeometry x="263.5" y="36.879999999999995" width="40" height="16.88" as="geometry"/>
                </mxCell>
                <mxCell id="102" style="edgeStyle=none;html=1;exitX=0.5;exitY=0;exitDx=0;exitDy=0;fontColor=#030303;" edge="1" parent="154" source="91" target="88">
                    <mxGeometry relative="1" as="geometry"/>
                </mxCell>
                <mxCell id="79" value="" style="group" vertex="1" connectable="0" parent="1">
                    <mxGeometry x="460" y="170" width="310" height="290" as="geometry"/>
                </mxCell>
                <mxCell id="3" value="" style="rounded=0;whiteSpace=wrap;html=1;" parent="79" vertex="1">
                    <mxGeometry width="310" height="290" as="geometry"/>
                </mxCell>
                <mxCell id="10" value="&lt;font color=&quot;#0a0a0a&quot;&gt;2&lt;/font&gt;" style="rounded=0;whiteSpace=wrap;html=1;fillColor=#d0cee2;strokeColor=#56517e;" parent="79" vertex="1">
                    <mxGeometry y="20" width="310" height="20" as="geometry"/>
                </mxCell>
                <mxCell id="7" value="&amp;nbsp; 訂單編號：" style="text;html=1;strokeColor=none;fillColor=none;align=left;verticalAlign=middle;whiteSpace=wrap;rounded=0;fontColor=#171717;" parent="79" vertex="1">
                    <mxGeometry y="20" width="80" height="20" as="geometry"/>
                </mxCell>
                <mxCell id="11" value="&lt;font color=&quot;#000000&quot;&gt;1&lt;/font&gt;" style="rounded=0;whiteSpace=wrap;html=1;fillColor=#d0cee2;strokeColor=#56517e;" parent="79" vertex="1">
                    <mxGeometry y="50" width="310" height="20" as="geometry"/>
                </mxCell>
                <mxCell id="8" value="&amp;nbsp; 訂單枱號：" style="text;html=1;strokeColor=none;fillColor=none;align=left;verticalAlign=middle;whiteSpace=wrap;rounded=0;fontColor=#030303;" parent="79" vertex="1">
                    <mxGeometry y="50" width="80" height="20" as="geometry"/>
                </mxCell>
                <mxCell id="12" value="" style="rounded=0;whiteSpace=wrap;html=1;fillColor=#d0cee2;strokeColor=#56517e;" parent="79" vertex="1">
                    <mxGeometry y="90" width="310" height="200" as="geometry"/>
                </mxCell>
                <mxCell id="13" value="&amp;nbsp; 訂單內容：" style="text;html=1;strokeColor=none;fillColor=none;align=center;verticalAlign=middle;whiteSpace=wrap;rounded=0;fontColor=#030303;" parent="79" vertex="1">
                    <mxGeometry y="90" width="80" height="20" as="geometry"/>
                </mxCell>
                <mxCell id="14" value="" style="rounded=0;whiteSpace=wrap;html=1;fillColor=#f9f7ed;strokeColor=#36393d;" parent="79" vertex="1">
                    <mxGeometry y="110" width="310" height="20" as="geometry"/>
                </mxCell>
                <mxCell id="16" value="數量" style="text;html=1;strokeColor=none;fillColor=none;align=center;verticalAlign=middle;whiteSpace=wrap;rounded=0;fontColor=#030303;" parent="79" vertex="1">
                    <mxGeometry x="70" y="110" width="40" height="20" as="geometry"/>
                </mxCell>
                <mxCell id="19" value="下單時間" style="text;html=1;strokeColor=none;fillColor=none;align=center;verticalAlign=middle;whiteSpace=wrap;rounded=0;fontColor=#030303;" parent="79" vertex="1">
                    <mxGeometry x="160" y="110" width="51" height="20" as="geometry"/>
                </mxCell>
                <mxCell id="20" value="狀態" style="text;html=1;strokeColor=none;fillColor=none;align=center;verticalAlign=middle;whiteSpace=wrap;rounded=0;fontColor=#030303;" parent="79" vertex="1">
                    <mxGeometry x="211" y="110" width="51" height="20" as="geometry"/>
                </mxCell>
                <mxCell id="29" value="沙嗲牛麵" style="text;html=1;strokeColor=none;fillColor=none;align=center;verticalAlign=middle;whiteSpace=wrap;rounded=0;fontColor=#030303;" parent="79" vertex="1">
                    <mxGeometry x="10" y="140" width="60" height="20" as="geometry"/>
                </mxCell>
                <mxCell id="48" value="2" style="text;html=1;strokeColor=none;fillColor=none;align=center;verticalAlign=middle;whiteSpace=wrap;rounded=0;fontColor=#030303;" parent="79" vertex="1">
                    <mxGeometry x="60" y="140" width="60" height="20" as="geometry"/>
                </mxCell>
                <mxCell id="49" value="堂食" style="text;html=1;strokeColor=none;fillColor=none;align=center;verticalAlign=middle;whiteSpace=wrap;rounded=0;fontColor=#030303;" parent="79" vertex="1">
                    <mxGeometry x="100" y="140" width="60" height="20" as="geometry"/>
                </mxCell>
                <mxCell id="50" value="17：20" style="text;html=1;strokeColor=none;fillColor=none;align=center;verticalAlign=middle;whiteSpace=wrap;rounded=0;fontColor=#030303;" parent="79" vertex="1">
                    <mxGeometry x="155.5" y="140" width="60" height="20" as="geometry"/>
                </mxCell>
                <mxCell id="51" value="製作中" style="text;html=1;strokeColor=none;fillColor=none;align=center;verticalAlign=middle;whiteSpace=wrap;rounded=0;fontColor=#030303;" parent="79" vertex="1">
                    <mxGeometry x="206.5" y="140" width="60" height="20" as="geometry"/>
                </mxCell>
                <mxCell id="60" value="完成" style="rounded=1;html=1;shadow=0;dashed=0;whiteSpace=wrap;fontSize=10;fillColor=#666666;align=center;strokeColor=#4D4D4D;fontColor=#ffffff;" parent="79" vertex="1">
                    <mxGeometry x="262" y="130" width="40" height="16.88" as="geometry"/>
                </mxCell>
                <mxCell id="62" value="&lt;font color=&quot;#000000&quot;&gt;全部刪除&amp;nbsp;&lt;/font&gt;" style="rounded=1;html=1;shadow=0;dashed=0;whiteSpace=wrap;fontSize=10;fillColor=#f8cecc;align=center;strokeColor=#b85450;" parent="79" vertex="1">
                    <mxGeometry y="260" width="140" height="16.88" as="geometry"/>
                </mxCell>
                <mxCell id="63" value="完成" style="rounded=1;html=1;shadow=0;dashed=0;whiteSpace=wrap;fontSize=10;fillColor=#666666;align=center;strokeColor=#4D4D4D;fontColor=#ffffff;" parent="79" vertex="1">
                    <mxGeometry x="160" y="260" width="146.5" height="16.88" as="geometry"/>
                </mxCell>
                <mxCell id="46" style="edgeStyle=none;html=1;exitX=0.5;exitY=0;exitDx=0;exitDy=0;fontColor=#030303;" parent="79" source="19" target="14" edge="1">
                    <mxGeometry relative="1" as="geometry"/>
                </mxCell>
                <mxCell id="129" value="菜品" style="text;html=1;strokeColor=none;fillColor=none;align=center;verticalAlign=middle;whiteSpace=wrap;rounded=0;fontColor=#030303;" vertex="1" parent="79">
                    <mxGeometry x="20" y="110" width="40" height="20" as="geometry"/>
                </mxCell>
                <mxCell id="130" value="&lt;font color=&quot;#000000&quot;&gt;刪除&amp;nbsp;&lt;/font&gt;" style="rounded=1;html=1;shadow=0;dashed=0;whiteSpace=wrap;fontSize=10;fillColor=#f8cecc;align=center;strokeColor=#b85450;" vertex="1" parent="79">
                    <mxGeometry x="262" y="146.88" width="40" height="16.88" as="geometry"/>
                </mxCell>
                <mxCell id="131" value="" style="group" vertex="1" connectable="0" parent="1">
                    <mxGeometry x="800" y="170" width="310" height="290" as="geometry"/>
                </mxCell>
                <mxCell id="132" value="" style="rounded=0;whiteSpace=wrap;html=1;" vertex="1" parent="131">
                    <mxGeometry width="310" height="290" as="geometry"/>
                </mxCell>
                <mxCell id="133" value="&lt;font color=&quot;#0a0a0a&quot;&gt;3&lt;/font&gt;" style="rounded=0;whiteSpace=wrap;html=1;fillColor=#d0cee2;strokeColor=#56517e;" vertex="1" parent="131">
                    <mxGeometry y="20" width="310" height="20" as="geometry"/>
                </mxCell>
                <mxCell id="134" value="&amp;nbsp; 訂單編號：" style="text;html=1;strokeColor=none;fillColor=none;align=left;verticalAlign=middle;whiteSpace=wrap;rounded=0;fontColor=#171717;" vertex="1" parent="131">
                    <mxGeometry y="20" width="80" height="20" as="geometry"/>
                </mxCell>
                <mxCell id="135" value="&lt;font color=&quot;#000000&quot;&gt;2&lt;/font&gt;" style="rounded=0;whiteSpace=wrap;html=1;fillColor=#d0cee2;strokeColor=#56517e;" vertex="1" parent="131">
                    <mxGeometry y="50" width="310" height="20" as="geometry"/>
                </mxCell>
                <mxCell id="136" value="&amp;nbsp; 訂單枱號：" style="text;html=1;strokeColor=none;fillColor=none;align=left;verticalAlign=middle;whiteSpace=wrap;rounded=0;fontColor=#030303;" vertex="1" parent="131">
                    <mxGeometry y="50" width="80" height="20" as="geometry"/>
                </mxCell>
                <mxCell id="137" value="" style="rounded=0;whiteSpace=wrap;html=1;fillColor=#d0cee2;strokeColor=#56517e;" vertex="1" parent="131">
                    <mxGeometry y="90" width="310" height="200" as="geometry"/>
                </mxCell>
                <mxCell id="138" value="&amp;nbsp; 訂單內容：" style="text;html=1;strokeColor=none;fillColor=none;align=center;verticalAlign=middle;whiteSpace=wrap;rounded=0;fontColor=#030303;" vertex="1" parent="131">
                    <mxGeometry y="90" width="80" height="20" as="geometry"/>
                </mxCell>
                <mxCell id="139" value="" style="rounded=0;whiteSpace=wrap;html=1;fillColor=#f9f7ed;strokeColor=#36393d;" vertex="1" parent="131">
                    <mxGeometry y="110" width="310" height="20" as="geometry"/>
                </mxCell>
                <mxCell id="140" value="數量" style="text;html=1;strokeColor=none;fillColor=none;align=center;verticalAlign=middle;whiteSpace=wrap;rounded=0;fontColor=#030303;" vertex="1" parent="131">
                    <mxGeometry x="70" y="110" width="40" height="20" as="geometry"/>
                </mxCell>
                <mxCell id="141" value="下單時間" style="text;html=1;strokeColor=none;fillColor=none;align=center;verticalAlign=middle;whiteSpace=wrap;rounded=0;fontColor=#030303;" vertex="1" parent="131">
                    <mxGeometry x="160" y="110" width="51" height="20" as="geometry"/>
                </mxCell>
                <mxCell id="142" value="狀態" style="text;html=1;strokeColor=none;fillColor=none;align=center;verticalAlign=middle;whiteSpace=wrap;rounded=0;fontColor=#030303;" vertex="1" parent="131">
                    <mxGeometry x="211" y="110" width="51" height="20" as="geometry"/>
                </mxCell>
                <mxCell id="143" value="沙嗲牛麵" style="text;html=1;strokeColor=none;fillColor=none;align=center;verticalAlign=middle;whiteSpace=wrap;rounded=0;fontColor=#030303;" vertex="1" parent="131">
                    <mxGeometry x="10" y="140" width="60" height="20" as="geometry"/>
                </mxCell>
                <mxCell id="144" value="2" style="text;html=1;strokeColor=none;fillColor=none;align=center;verticalAlign=middle;whiteSpace=wrap;rounded=0;fontColor=#030303;" vertex="1" parent="131">
                    <mxGeometry x="60" y="140" width="60" height="20" as="geometry"/>
                </mxCell>
                <mxCell id="145" value="堂食" style="text;html=1;strokeColor=none;fillColor=none;align=center;verticalAlign=middle;whiteSpace=wrap;rounded=0;fontColor=#030303;" vertex="1" parent="131">
                    <mxGeometry x="100" y="140" width="60" height="20" as="geometry"/>
                </mxCell>
                <mxCell id="146" value="17：20" style="text;html=1;strokeColor=none;fillColor=none;align=center;verticalAlign=middle;whiteSpace=wrap;rounded=0;fontColor=#030303;" vertex="1" parent="131">
                    <mxGeometry x="155.5" y="140" width="60" height="20" as="geometry"/>
                </mxCell>
                <mxCell id="147" value="製作中" style="text;html=1;strokeColor=none;fillColor=none;align=center;verticalAlign=middle;whiteSpace=wrap;rounded=0;fontColor=#030303;" vertex="1" parent="131">
                    <mxGeometry x="206.5" y="140" width="60" height="20" as="geometry"/>
                </mxCell>
                <mxCell id="148" value="完成" style="rounded=1;html=1;shadow=0;dashed=0;whiteSpace=wrap;fontSize=10;fillColor=#666666;align=center;strokeColor=#4D4D4D;fontColor=#ffffff;" vertex="1" parent="131">
                    <mxGeometry x="262" y="130" width="40" height="16.88" as="geometry"/>
                </mxCell>
                <mxCell id="149" value="&lt;font color=&quot;#000000&quot;&gt;全部刪除&amp;nbsp;&lt;/font&gt;" style="rounded=1;html=1;shadow=0;dashed=0;whiteSpace=wrap;fontSize=10;fillColor=#f8cecc;align=center;strokeColor=#b85450;" vertex="1" parent="131">
                    <mxGeometry y="260" width="140" height="16.88" as="geometry"/>
                </mxCell>
                <mxCell id="150" value="完成" style="rounded=1;html=1;shadow=0;dashed=0;whiteSpace=wrap;fontSize=10;fillColor=#666666;align=center;strokeColor=#4D4D4D;fontColor=#ffffff;" vertex="1" parent="131">
                    <mxGeometry x="160" y="260" width="146.5" height="16.88" as="geometry"/>
                </mxCell>
                <mxCell id="151" style="edgeStyle=none;html=1;exitX=0.5;exitY=0;exitDx=0;exitDy=0;fontColor=#030303;" edge="1" parent="131" source="141" target="139">
                    <mxGeometry relative="1" as="geometry"/>
                </mxCell>
                <mxCell id="152" value="菜品" style="text;html=1;strokeColor=none;fillColor=none;align=center;verticalAlign=middle;whiteSpace=wrap;rounded=0;fontColor=#030303;" vertex="1" parent="131">
                    <mxGeometry x="20" y="110" width="40" height="20" as="geometry"/>
                </mxCell>
                <mxCell id="153" value="&lt;font color=&quot;#000000&quot;&gt;刪除&amp;nbsp;&lt;/font&gt;" style="rounded=1;html=1;shadow=0;dashed=0;whiteSpace=wrap;fontSize=10;fillColor=#f8cecc;align=center;strokeColor=#b85450;" vertex="1" parent="131">
                    <mxGeometry x="262" y="146.88" width="40" height="16.88" as="geometry"/>
                </mxCell>
            </root>
        </mxGraphModel>
    </diagram>
</mxfile>