<mxfile host="65bd71144e">
    <diagram id="SlyakHmGXEvaHFVlZSmI" name="Page-1">
        <mxGraphModel dx="725" dy="524" grid="1" gridSize="10" guides="1" tooltips="1" connect="1" arrows="1" fold="1" page="1" pageScale="1" pageWidth="827" pageHeight="1169" math="0" shadow="0">
            <root>
                <mxCell id="0"/>
                <mxCell id="1" parent="0"/>
                <mxCell id="7" value="" style="rounded=0;whiteSpace=wrap;html=1;" parent="1" vertex="1">
                    <mxGeometry x="30" y="30" width="500" height="460" as="geometry"/>
                </mxCell>
                <mxCell id="8" value="&lt;div style=&quot;text-align: left&quot;&gt;&lt;font color=&quot;#66ffff&quot;&gt;&amp;nbsp; &lt;/font&gt;&lt;font color=&quot;#99004d&quot;&gt;更改密碼&amp;nbsp; &amp;nbsp; &amp;nbsp; &amp;nbsp; &amp;nbsp; &amp;nbsp; &amp;nbsp; &amp;nbsp; &amp;nbsp; &amp;nbsp; &amp;nbsp; &amp;nbsp; &amp;nbsp; &amp;nbsp; &amp;nbsp; &amp;nbsp; &amp;nbsp; &amp;nbsp; &amp;nbsp; &amp;nbsp; &amp;nbsp; &amp;nbsp; &amp;nbsp; &amp;nbsp; &amp;nbsp; &amp;nbsp; &amp;nbsp; &amp;nbsp; &amp;nbsp; &amp;nbsp; &amp;nbsp; &amp;nbsp; &amp;nbsp; &amp;nbsp; &amp;nbsp; &amp;nbsp; &amp;nbsp;&amp;nbsp;&lt;/font&gt;&lt;font color=&quot;#66ffff&quot;&gt;員工：&lt;/font&gt;&lt;span&gt;Jupiter&amp;nbsp;&amp;nbsp;&lt;/span&gt;&lt;font color=&quot;#66ffff&quot;&gt;職級：&lt;/font&gt;&lt;span&gt;店長&amp;nbsp; &lt;/span&gt;&lt;font color=&quot;#ff33ff&quot;&gt;登出&lt;/font&gt;&lt;/div&gt;" style="rounded=0;whiteSpace=wrap;html=1;fillColor=#6d8764;strokeColor=#3A5431;fontColor=#ffffff;align=right;" parent="1" vertex="1">
                    <mxGeometry x="39" y="40" width="481" height="30" as="geometry"/>
                </mxCell>
                <mxCell id="9" value="營運設置： &lt;span style=&quot;background-color: rgb(255 , 255 , 255)&quot;&gt;座位管理&lt;/span&gt;&amp;nbsp; &amp;nbsp;&lt;span style=&quot;background-color: rgb(230 , 230 , 230)&quot;&gt;員工管理&lt;/span&gt;&amp;nbsp; &amp;nbsp;&lt;span style=&quot;background-color: rgb(255 , 255 , 255)&quot;&gt;菜品管理&lt;/span&gt;&amp;nbsp; &lt;span style=&quot;background-color: rgb(230 , 230 , 230)&quot;&gt;套餐管理&lt;/span&gt;&amp;nbsp; &lt;span style=&quot;background-color: rgb(255 , 255 , 255)&quot;&gt;食材管理&amp;nbsp;&lt;/span&gt;&amp;nbsp;&amp;nbsp;&amp;nbsp;&lt;span style=&quot;background-color: rgb(255 , 255 , 255)&quot;&gt;備註設定&lt;/span&gt;" style="rounded=0;whiteSpace=wrap;html=1;fillColor=#e3c800;strokeColor=#B09500;fontColor=#000000;align=left;" parent="1" vertex="1">
                    <mxGeometry x="39.5" y="72" width="481" height="30" as="geometry"/>
                </mxCell>
                <mxCell id="10" value="營動數據 ：&amp;nbsp;&amp;nbsp;銷售總覽&amp;nbsp; &amp;nbsp;食材消耗分析&amp;nbsp;&amp;nbsp;庫存總覽" style="rounded=0;whiteSpace=wrap;html=1;fillColor=#0050ef;strokeColor=#001DBC;fontColor=#ffffff;align=left;" parent="1" vertex="1">
                    <mxGeometry x="39.5" y="100" width="480.5" height="30" as="geometry"/>
                </mxCell>
                <mxCell id="11" value="&lt;font color=&quot;#0a0a0a&quot;&gt;庫存出納：&amp;nbsp; &amp;nbsp;新增庫存&amp;nbsp; &amp;nbsp;庫存清點&lt;/font&gt;" style="rounded=0;whiteSpace=wrap;html=1;fillColor=#60a917;strokeColor=#2D7600;fontColor=#ffffff;align=left;" parent="1" vertex="1">
                    <mxGeometry x="39.5" y="130" width="480.5" height="30" as="geometry"/>
                </mxCell>
                <mxCell id="12" value="飲品備註" style="rounded=0;whiteSpace=wrap;html=1;fillColor=#6a00ff;strokeColor=#3700CC;fontColor=#ffffff;align=left;" vertex="1" parent="1">
                    <mxGeometry x="39" y="180" width="480.5" height="30" as="geometry"/>
                </mxCell>
                <mxCell id="13" value="&lt;font color=&quot;#1a1a1a&quot;&gt;多冰&lt;br&gt;少甜&lt;br&gt;走甜&lt;br&gt;多甜&lt;br&gt;茶走&lt;br&gt;多奶&lt;br&gt;少奶&lt;br&gt;[&amp;nbsp; &amp;nbsp; &amp;nbsp;]&lt;br&gt;&lt;/font&gt;" style="rounded=0;whiteSpace=wrap;html=1;fillColor=#b1ddf0;strokeColor=#10739e;align=left;" vertex="1" parent="1">
                    <mxGeometry x="40" y="210" width="480.5" height="120" as="geometry"/>
                </mxCell>
                <mxCell id="14" value="備註類型：&amp;lt;&amp;lt;select input type&amp;gt;&amp;gt; &lt;span style=&quot;background-color: rgb(255 , 28 , 66)&quot;&gt;***按菜品種類落備註&lt;/span&gt;&amp;nbsp;" style="rounded=0;whiteSpace=wrap;html=1;fillColor=#6a00ff;strokeColor=#3700CC;fontColor=#ffffff;align=left;" vertex="1" parent="1">
                    <mxGeometry x="39" y="340" width="480.5" height="30" as="geometry"/>
                </mxCell>
                <mxCell id="15" value="&lt;font color=&quot;#1a1a1a&quot;&gt;新增&lt;/font&gt;" style="rounded=0;whiteSpace=wrap;html=1;fillColor=#d0cee2;strokeColor=#56517e;" vertex="1" parent="1">
                    <mxGeometry x="390" y="340" width="70" height="30" as="geometry"/>
                </mxCell>
                <mxCell id="16" value="&lt;font color=&quot;#1a1a1a&quot;&gt;刪除&lt;/font&gt;" style="rounded=0;whiteSpace=wrap;html=1;fillColor=#d0cee2;strokeColor=#56517e;" vertex="1" parent="1">
                    <mxGeometry x="390" y="180" width="70" height="30" as="geometry"/>
                </mxCell>
                <mxCell id="17" value="&lt;font color=&quot;#1a1a1a&quot;&gt;新增&lt;/font&gt;" style="rounded=0;whiteSpace=wrap;html=1;fillColor=#d0cee2;strokeColor=#56517e;" vertex="1" parent="1">
                    <mxGeometry x="90" y="310" width="70" height="20" as="geometry"/>
                </mxCell>
                <mxCell id="18" value="&lt;font color=&quot;#1a1a1a&quot;&gt;刪除&lt;/font&gt;" style="rounded=0;whiteSpace=wrap;html=1;fillColor=#d0cee2;strokeColor=#56517e;" vertex="1" parent="1">
                    <mxGeometry x="90" y="220" width="70" height="10" as="geometry"/>
                </mxCell>
                <mxCell id="19" value="&lt;font color=&quot;#1a1a1a&quot;&gt;刪除&lt;/font&gt;" style="rounded=0;whiteSpace=wrap;html=1;fillColor=#d0cee2;strokeColor=#56517e;" vertex="1" parent="1">
                    <mxGeometry x="90" y="230" width="70" height="10" as="geometry"/>
                </mxCell>
                <mxCell id="20" value="&lt;font color=&quot;#1a1a1a&quot;&gt;刪除&lt;/font&gt;" style="rounded=0;whiteSpace=wrap;html=1;fillColor=#d0cee2;strokeColor=#56517e;" vertex="1" parent="1">
                    <mxGeometry x="90" y="240" width="70" height="10" as="geometry"/>
                </mxCell>
                <mxCell id="21" value="&lt;font color=&quot;#1a1a1a&quot;&gt;刪除&lt;/font&gt;" style="rounded=0;whiteSpace=wrap;html=1;fillColor=#d0cee2;strokeColor=#56517e;" vertex="1" parent="1">
                    <mxGeometry x="90" y="250" width="70" height="10" as="geometry"/>
                </mxCell>
                <mxCell id="22" value="&lt;font color=&quot;#1a1a1a&quot;&gt;刪除&lt;/font&gt;" style="rounded=0;whiteSpace=wrap;html=1;fillColor=#d0cee2;strokeColor=#56517e;" vertex="1" parent="1">
                    <mxGeometry x="90" y="260" width="70" height="10" as="geometry"/>
                </mxCell>
                <mxCell id="23" value="&lt;font color=&quot;#1a1a1a&quot;&gt;刪除&lt;/font&gt;" style="rounded=0;whiteSpace=wrap;html=1;fillColor=#d0cee2;strokeColor=#56517e;" vertex="1" parent="1">
                    <mxGeometry x="90" y="270" width="70" height="10" as="geometry"/>
                </mxCell>
                <mxCell id="24" value="&lt;font color=&quot;#1a1a1a&quot;&gt;刪除&lt;/font&gt;" style="rounded=0;whiteSpace=wrap;html=1;fillColor=#d0cee2;strokeColor=#56517e;" vertex="1" parent="1">
                    <mxGeometry x="90" y="280" width="70" height="10" as="geometry"/>
                </mxCell>
                <mxCell id="25" value="&lt;font color=&quot;#1a1a1a&quot;&gt;刪除&lt;/font&gt;" style="rounded=0;whiteSpace=wrap;html=1;fillColor=#d0cee2;strokeColor=#56517e;" vertex="1" parent="1">
                    <mxGeometry x="90" y="290" width="70" height="10" as="geometry"/>
                </mxCell>
            </root>
        </mxGraphModel>
    </diagram>
</mxfile>