<mxfile host="65bd71144e">
    <diagram id="SlyakHmGXEvaHFVlZSmI" name="Page-1">
        <mxGraphModel dx="1355" dy="979" grid="1" gridSize="10" guides="1" tooltips="1" connect="1" arrows="1" fold="1" page="1" pageScale="1" pageWidth="827" pageHeight="1169" math="0" shadow="0">
            <root>
                <mxCell id="0"/>
                <mxCell id="1" parent="0"/>
                <mxCell id="7" value="" style="rounded=0;whiteSpace=wrap;html=1;" parent="1" vertex="1">
                    <mxGeometry x="30" y="30" width="790" height="430" as="geometry"/>
                </mxCell>
                <mxCell id="10" value="&lt;div style=&quot;text-align: left&quot;&gt;&lt;span&gt;註冊新員工&lt;/span&gt;&lt;/div&gt;&lt;div style=&quot;text-align: left&quot;&gt;&lt;span&gt;員工名稱： TONY&lt;/span&gt;&lt;/div&gt;&lt;div style=&quot;text-align: left&quot;&gt;&lt;span&gt;密碼： ********&lt;/span&gt;&lt;/div&gt;&lt;div style=&quot;text-align: left&quot;&gt;&lt;span&gt;職級：待應&lt;/span&gt;&lt;/div&gt;&lt;div style=&quot;text-align: left&quot;&gt;&lt;span&gt;&lt;br&gt;&lt;/span&gt;&lt;/div&gt;&lt;div style=&quot;text-align: left&quot;&gt;&lt;span&gt;&lt;br&gt;&lt;/span&gt;&lt;/div&gt;" style="rounded=0;whiteSpace=wrap;html=1;fillColor=#647687;strokeColor=#314354;fontColor=#ffffff;" parent="1" vertex="1">
                    <mxGeometry x="299" y="110" width="230" height="140" as="geometry"/>
                </mxCell>
                <mxCell id="11" value="&lt;font color=&quot;#0a0a0a&quot;&gt;提交&lt;/font&gt;" style="rounded=0;whiteSpace=wrap;html=1;strokeColor=#FFFFFF;fillColor=#CCCCCC;" parent="1" vertex="1">
                    <mxGeometry x="369.5" y="210" width="110" height="20" as="geometry"/>
                </mxCell>
                <mxCell id="23" value="&lt;font color=&quot;#000000&quot;&gt;API：&lt;br&gt;getStaffUser()&lt;br&gt;create StaffUser()&lt;br&gt;renewStaffUser()&lt;br&gt;&lt;br&gt;&lt;/font&gt;" style="rounded=0;whiteSpace=wrap;html=1;fontSize=13;strokeColor=#FFFFFF;fillColor=#CCCCCC;" parent="1" vertex="1">
                    <mxGeometry x="350" y="480" width="120" height="180" as="geometry"/>
                </mxCell>
                <mxCell id="24" value="" style="group" parent="1" vertex="1" connectable="0">
                    <mxGeometry x="39" y="40" width="771" height="60" as="geometry"/>
                </mxCell>
                <mxCell id="8" value="&lt;div style=&quot;text-align: left&quot;&gt;&lt;font color=&quot;#66ffff&quot;&gt;&amp;nbsp; &lt;/font&gt;&lt;font color=&quot;#99004d&quot;&gt;更改密碼&amp;nbsp; &amp;nbsp; &amp;nbsp; &amp;nbsp; &amp;nbsp; &amp;nbsp; &amp;nbsp; &amp;nbsp; &amp;nbsp; &amp;nbsp; &amp;nbsp; &amp;nbsp; &amp;nbsp; &amp;nbsp; &amp;nbsp; &amp;nbsp; &amp;nbsp; &amp;nbsp; &amp;nbsp; &amp;nbsp; &amp;nbsp; &amp;nbsp; &amp;nbsp; &amp;nbsp; &amp;nbsp; &amp;nbsp; &amp;nbsp; &amp;nbsp; &amp;nbsp; &amp;nbsp; &amp;nbsp; &amp;nbsp; &amp;nbsp; &amp;nbsp; &amp;nbsp; &amp;nbsp; &amp;nbsp;&amp;nbsp;&lt;/font&gt;&lt;font color=&quot;#66ffff&quot;&gt;員工：&lt;/font&gt;&lt;span&gt;Jupiter&amp;nbsp;&amp;nbsp;&lt;/span&gt;&lt;font color=&quot;#66ffff&quot;&gt;職級：&lt;/font&gt;管理&lt;span&gt;&amp;nbsp;&amp;nbsp;&lt;/span&gt;&lt;font color=&quot;#ff33ff&quot;&gt;登出&lt;/font&gt;&lt;/div&gt;" style="rounded=0;whiteSpace=wrap;html=1;fillColor=#6d8764;strokeColor=#3A5431;fontColor=#ffffff;align=right;" parent="24" vertex="1">
                    <mxGeometry width="771" height="30" as="geometry"/>
                </mxCell>
                <mxCell id="9" value="營運設置： &lt;span style=&quot;background-color: rgb(255 , 255 , 255)&quot;&gt;座位管理&lt;/span&gt;&amp;nbsp; &amp;nbsp;&lt;span style=&quot;background-color: rgb(255 , 51 , 255)&quot;&gt;員工管理&lt;/span&gt;&amp;nbsp; &amp;nbsp;&lt;span style=&quot;background-color: rgb(255 , 255 , 255)&quot;&gt;菜品管理&lt;/span&gt;&amp;nbsp; &lt;span style=&quot;background-color: rgb(230 , 230 , 230)&quot;&gt;套餐管理&lt;/span&gt;&amp;nbsp; &lt;span style=&quot;background-color: rgb(255 , 255 , 255)&quot;&gt;食材管理&lt;/span&gt;&amp;nbsp; &amp;nbsp;" style="rounded=0;whiteSpace=wrap;html=1;fillColor=#e3c800;strokeColor=#B09500;fontColor=#000000;align=left;" parent="24" vertex="1">
                    <mxGeometry x="0.6751313485113836" y="30" width="770.3248686514886" height="30" as="geometry"/>
                </mxCell>
                <mxCell id="25" value="" style="group" parent="1" vertex="1" connectable="0">
                    <mxGeometry x="430" y="260" width="380" height="110" as="geometry"/>
                </mxCell>
                <mxCell id="19" value="&lt;font color=&quot;#000000&quot;&gt;員工編號&amp;nbsp; &amp;nbsp;員工名稱&amp;nbsp; 職級&amp;nbsp; 是否在任&amp;nbsp; 入職日期&amp;nbsp; 離職日期&amp;nbsp;&lt;br&gt;&amp;nbsp; &amp;nbsp; &amp;nbsp; &amp;nbsp;2&amp;nbsp; &amp;nbsp; &amp;nbsp; &amp;nbsp; &amp;nbsp;TONY&amp;nbsp; &amp;nbsp; &amp;nbsp; 待應&amp;nbsp; &amp;nbsp; &amp;nbsp; &amp;nbsp; 否&amp;nbsp; &amp;nbsp; &amp;nbsp;1/sep/2020&amp;nbsp; 2/Sep/2020&lt;br&gt;&lt;/font&gt;" style="rounded=0;whiteSpace=wrap;html=1;strokeColor=#FFFFFF;fillColor=#CCCCCC;align=left;" parent="25" vertex="1">
                    <mxGeometry width="380" height="110" as="geometry"/>
                </mxCell>
                <mxCell id="20" value="本店不在任員工：" style="rounded=0;whiteSpace=wrap;html=1;strokeColor=#BD7000;fillColor=#f0a30a;fontColor=#000000;align=left;" parent="25" vertex="1">
                    <mxGeometry y="10" width="380" height="20" as="geometry"/>
                </mxCell>
                <mxCell id="21" value="&lt;font color=&quot;#0a0a0a&quot; style=&quot;font-size: 8px&quot;&gt;資料變更&lt;/font&gt;" style="rounded=0;whiteSpace=wrap;html=1;strokeColor=#432D57;fillColor=#76608a;fontColor=#ffffff;fontSize=13;" parent="25" vertex="1">
                    <mxGeometry x="326.8" y="45" width="53.2" height="20" as="geometry"/>
                </mxCell>
                <mxCell id="27" value="" style="group" parent="1" vertex="1" connectable="0">
                    <mxGeometry x="40" y="260" width="370" height="110" as="geometry"/>
                </mxCell>
                <mxCell id="17" value="&lt;font color=&quot;#000000&quot;&gt;&lt;br&gt;員工編號&amp;nbsp; &amp;nbsp;員工名稱&amp;nbsp; 職級&amp;nbsp; 是否在任 入職日期&amp;nbsp;&amp;nbsp;&lt;br&gt;&amp;nbsp; &amp;nbsp; &amp;nbsp; &amp;nbsp;1&amp;nbsp; &amp;nbsp; &amp;nbsp; &amp;nbsp; &amp;nbsp;Jupiter&amp;nbsp; &amp;nbsp; &amp;nbsp;管理&amp;nbsp; &amp;nbsp; &amp;nbsp; &amp;nbsp; 是&amp;nbsp; &amp;nbsp; &amp;nbsp; &amp;nbsp;1/Sep／2020&amp;nbsp;&lt;br&gt;&lt;br&gt;&lt;/font&gt;" style="rounded=0;whiteSpace=wrap;html=1;strokeColor=#FFFFFF;fillColor=#CCCCCC;align=left;" parent="27" vertex="1">
                    <mxGeometry width="370" height="110" as="geometry"/>
                </mxCell>
                <mxCell id="18" value="本店在任員工：" style="rounded=0;whiteSpace=wrap;html=1;strokeColor=#BD7000;fillColor=#f0a30a;fontColor=#000000;align=left;" parent="27" vertex="1">
                    <mxGeometry y="10" width="370" height="20" as="geometry"/>
                </mxCell>
                <mxCell id="16" value="&lt;font color=&quot;#0a0a0a&quot; style=&quot;font-size: 8px&quot;&gt;資料變更&lt;/font&gt;" style="rounded=0;whiteSpace=wrap;html=1;strokeColor=#432D57;fillColor=#76608a;fontColor=#ffffff;fontSize=13;" parent="27" vertex="1">
                    <mxGeometry x="317.1428571428571" y="60" width="46.25" height="20" as="geometry"/>
                </mxCell>
            </root>
        </mxGraphModel>
    </diagram>
</mxfile>