<mxfile host="65bd71144e">
    <diagram id="SlyakHmGXEvaHFVlZSmI" name="Page-1">
        <mxGraphModel dx="1355" dy="979" grid="1" gridSize="10" guides="1" tooltips="1" connect="1" arrows="1" fold="1" page="1" pageScale="1" pageWidth="827" pageHeight="1169" math="0" shadow="0">
            <root>
                <mxCell id="0"/>
                <mxCell id="1" parent="0"/>
                <mxCell id="30" style="edgeStyle=none;html=1;" parent="1" source="7" edge="1">
                    <mxGeometry relative="1" as="geometry">
                        <mxPoint x="640" y="270" as="targetPoint"/>
                    </mxGeometry>
                </mxCell>
                <mxCell id="7" value="" style="rounded=0;whiteSpace=wrap;html=1;" parent="1" vertex="1">
                    <mxGeometry x="30" y="40" width="600" height="510" as="geometry"/>
                </mxCell>
                <mxCell id="8" value="&lt;div style=&quot;text-align: left&quot;&gt;&lt;font color=&quot;#66ffff&quot;&gt;&amp;nbsp; &lt;/font&gt;&lt;font color=&quot;#99004d&quot;&gt;更改密碼&amp;nbsp; &amp;nbsp; &amp;nbsp; &amp;nbsp; &amp;nbsp; &amp;nbsp; &amp;nbsp; &amp;nbsp; &amp;nbsp; &amp;nbsp; &amp;nbsp; &amp;nbsp; &amp;nbsp; &amp;nbsp; &amp;nbsp; &amp;nbsp; &amp;nbsp; &amp;nbsp; &amp;nbsp; &amp;nbsp; &amp;nbsp; &amp;nbsp; &amp;nbsp; &amp;nbsp; &amp;nbsp; &amp;nbsp; &amp;nbsp; &amp;nbsp; &amp;nbsp; &amp;nbsp; &amp;nbsp; &amp;nbsp; &amp;nbsp; &amp;nbsp; &amp;nbsp; &amp;nbsp; &amp;nbsp;&amp;nbsp;&lt;/font&gt;&lt;font color=&quot;#66ffff&quot;&gt;員工：&lt;/font&gt;&lt;span&gt;Jupiter&amp;nbsp;&amp;nbsp;&lt;/span&gt;&lt;font color=&quot;#66ffff&quot;&gt;職級：&lt;/font&gt;&lt;span&gt;店長&amp;nbsp; &lt;/span&gt;&lt;font color=&quot;#ff33ff&quot;&gt;登出&lt;/font&gt;&lt;/div&gt;" style="rounded=0;whiteSpace=wrap;html=1;fillColor=#6d8764;strokeColor=#3A5431;fontColor=#ffffff;align=right;" parent="1" vertex="1">
                    <mxGeometry x="30" y="40" width="600" height="30" as="geometry"/>
                </mxCell>
                <mxCell id="9" value="營運設置： &lt;span style=&quot;background-color: rgb(255 , 38 , 74)&quot;&gt;座位管理&lt;/span&gt;&amp;nbsp; &amp;nbsp;&lt;span style=&quot;background-color: rgb(230 , 230 , 230)&quot;&gt;員工管理&lt;/span&gt;&amp;nbsp; &amp;nbsp;&lt;span style=&quot;background-color: rgb(255 , 255 , 255)&quot;&gt;菜品管理&lt;/span&gt;&amp;nbsp; &lt;span style=&quot;background-color: rgb(230 , 230 , 230)&quot;&gt;套餐管理&lt;/span&gt;&amp;nbsp; &lt;span style=&quot;background-color: rgb(255 , 255 , 255)&quot;&gt;食材管理&lt;/span&gt;&amp;nbsp; &amp;nbsp;" style="rounded=0;whiteSpace=wrap;html=1;fillColor=#e3c800;strokeColor=#B09500;fontColor=#000000;align=left;" parent="1" vertex="1">
                    <mxGeometry x="30" y="70" width="600" height="30" as="geometry"/>
                </mxCell>
                <mxCell id="17" value="2" style="group" parent="1" vertex="1" connectable="0">
                    <mxGeometry x="70" y="190" width="550" height="350" as="geometry"/>
                </mxCell>
                <mxCell id="141" value="" style="rounded=0;whiteSpace=wrap;html=1;fillColor=#1ba1e2;strokeColor=#006EAF;fontColor=#ffffff;" vertex="1" parent="17">
                    <mxGeometry x="-19" y="-50" width="569" height="400" as="geometry"/>
                </mxCell>
                <mxCell id="12" value="" style="whiteSpace=wrap;html=1;aspect=fixed;fillColor=#d0cee2;strokeColor=#56517e;" parent="17" vertex="1">
                    <mxGeometry x="0.5" width="150" height="150" as="geometry"/>
                </mxCell>
                <mxCell id="13" value="&lt;font color=&quot;#000000&quot;&gt;枱號：1&lt;/font&gt;" style="rounded=0;whiteSpace=wrap;html=1;fillColor=#dae8fc;strokeColor=#6c8ebf;gradientColor=#7ea6e0;" parent="17" vertex="1">
                    <mxGeometry width="151" height="20" as="geometry"/>
                </mxCell>
                <mxCell id="14" value="&lt;font color=&quot;#4d4d4d&quot; style=&quot;font-size: 8px&quot;&gt;請輸入本枱的座位數：&lt;u&gt;&amp;nbsp; 4&amp;nbsp; &amp;nbsp;&lt;/u&gt;&amp;nbsp;&lt;/font&gt;" style="rounded=0;whiteSpace=wrap;html=1;fillColor=#fad7ac;strokeColor=#b46504;align=left;" parent="17" vertex="1">
                    <mxGeometry y="20" width="151" height="20" as="geometry"/>
                </mxCell>
                <mxCell id="16" value="&lt;font color=&quot;#000000&quot;&gt;提交&lt;/font&gt;" style="rounded=0;whiteSpace=wrap;html=1;fillColor=#bac8d3;strokeColor=#23445d;" parent="17" vertex="1">
                    <mxGeometry x="101" y="20" width="50" height="20" as="geometry"/>
                </mxCell>
                <mxCell id="71" value="" style="group" parent="17" vertex="1" connectable="0">
                    <mxGeometry x="40.5" y="60" width="70" height="70" as="geometry"/>
                </mxCell>
                <mxCell id="46" value="A" style="rounded=0;whiteSpace=wrap;html=1;" parent="71" vertex="1">
                    <mxGeometry width="30" height="30" as="geometry"/>
                </mxCell>
                <mxCell id="54" value="B" style="whiteSpace=wrap;html=1;aspect=fixed;" parent="71" vertex="1">
                    <mxGeometry y="40" width="30" height="30" as="geometry"/>
                </mxCell>
                <mxCell id="69" value="C" style="rounded=0;whiteSpace=wrap;html=1;" parent="71" vertex="1">
                    <mxGeometry x="40" width="30" height="30" as="geometry"/>
                </mxCell>
                <mxCell id="70" value="D" style="rounded=0;whiteSpace=wrap;html=1;" parent="71" vertex="1">
                    <mxGeometry x="40" y="40" width="30" height="30" as="geometry"/>
                </mxCell>
                <mxCell id="121" value="刪除" style="rounded=0;whiteSpace=wrap;html=1;" parent="17" vertex="1">
                    <mxGeometry x="101" width="50" height="20" as="geometry"/>
                </mxCell>
                <mxCell id="20" value="" style="group" parent="1" vertex="1" connectable="0">
                    <mxGeometry x="254.5" y="190" width="151" height="150" as="geometry"/>
                </mxCell>
                <mxCell id="21" value="" style="whiteSpace=wrap;html=1;aspect=fixed;fillColor=#d0cee2;strokeColor=#56517e;" parent="20" vertex="1">
                    <mxGeometry x="0.5" width="150" height="150" as="geometry"/>
                </mxCell>
                <mxCell id="22" value="&lt;font color=&quot;#000000&quot;&gt;枱號：2&lt;/font&gt;" style="rounded=0;whiteSpace=wrap;html=1;fillColor=#dae8fc;strokeColor=#6c8ebf;gradientColor=#7ea6e0;" parent="20" vertex="1">
                    <mxGeometry width="151" height="20" as="geometry"/>
                </mxCell>
                <mxCell id="23" value="&lt;font color=&quot;#4d4d4d&quot; style=&quot;font-size: 8px&quot;&gt;請輸入本枱的座位數：&lt;u&gt;&amp;nbsp; 4&amp;nbsp; &amp;nbsp;&lt;/u&gt;&amp;nbsp;&lt;/font&gt;" style="rounded=0;whiteSpace=wrap;html=1;fillColor=#fad7ac;strokeColor=#b46504;align=left;" parent="20" vertex="1">
                    <mxGeometry y="20" width="151" height="20" as="geometry"/>
                </mxCell>
                <mxCell id="24" value="&lt;font color=&quot;#000000&quot;&gt;提交&lt;/font&gt;" style="rounded=0;whiteSpace=wrap;html=1;fillColor=#bac8d3;strokeColor=#23445d;" parent="20" vertex="1">
                    <mxGeometry x="101" y="20" width="50" height="20" as="geometry"/>
                </mxCell>
                <mxCell id="93" value="A" style="rounded=0;whiteSpace=wrap;html=1;" parent="20" vertex="1">
                    <mxGeometry x="40.5" y="60" width="30" height="30" as="geometry"/>
                </mxCell>
                <mxCell id="94" value="B" style="whiteSpace=wrap;html=1;aspect=fixed;" parent="20" vertex="1">
                    <mxGeometry x="40.5" y="100" width="30" height="30" as="geometry"/>
                </mxCell>
                <mxCell id="95" value="C" style="rounded=0;whiteSpace=wrap;html=1;" parent="20" vertex="1">
                    <mxGeometry x="80.5" y="60" width="30" height="30" as="geometry"/>
                </mxCell>
                <mxCell id="96" value="D" style="rounded=0;whiteSpace=wrap;html=1;" parent="20" vertex="1">
                    <mxGeometry x="80.5" y="100" width="30" height="30" as="geometry"/>
                </mxCell>
                <mxCell id="133" value="刪除" style="rounded=0;whiteSpace=wrap;html=1;" parent="20" vertex="1">
                    <mxGeometry x="100.5" width="50" height="20" as="geometry"/>
                </mxCell>
                <mxCell id="31" value="1" style="group" parent="1" vertex="1" connectable="0">
                    <mxGeometry x="451" y="190" width="151" height="150" as="geometry"/>
                </mxCell>
                <mxCell id="32" value="" style="whiteSpace=wrap;html=1;aspect=fixed;fillColor=#d0cee2;strokeColor=#56517e;" parent="31" vertex="1">
                    <mxGeometry x="0.5" width="150" height="150" as="geometry"/>
                </mxCell>
                <mxCell id="33" value="&lt;font color=&quot;#000000&quot;&gt;枱號：3&lt;/font&gt;" style="rounded=0;whiteSpace=wrap;html=1;fillColor=#dae8fc;strokeColor=#6c8ebf;gradientColor=#7ea6e0;" parent="31" vertex="1">
                    <mxGeometry width="151" height="20" as="geometry"/>
                </mxCell>
                <mxCell id="34" value="&lt;font color=&quot;#4d4d4d&quot; style=&quot;font-size: 8px&quot;&gt;請輸入本枱的座位數：&lt;u&gt;&amp;nbsp; 4&amp;nbsp; &amp;nbsp;&lt;/u&gt;&amp;nbsp;&lt;/font&gt;" style="rounded=0;whiteSpace=wrap;html=1;fillColor=#fad7ac;strokeColor=#b46504;align=left;" parent="31" vertex="1">
                    <mxGeometry y="20" width="151" height="20" as="geometry"/>
                </mxCell>
                <mxCell id="35" value="&lt;font color=&quot;#000000&quot;&gt;提交&lt;/font&gt;" style="rounded=0;whiteSpace=wrap;html=1;fillColor=#bac8d3;strokeColor=#23445d;" parent="31" vertex="1">
                    <mxGeometry x="101" y="20" width="50" height="20" as="geometry"/>
                </mxCell>
                <mxCell id="97" value="A" style="rounded=0;whiteSpace=wrap;html=1;" parent="31" vertex="1">
                    <mxGeometry x="40.5" y="60" width="30" height="30" as="geometry"/>
                </mxCell>
                <mxCell id="98" value="B" style="whiteSpace=wrap;html=1;aspect=fixed;" parent="31" vertex="1">
                    <mxGeometry x="40.5" y="100" width="30" height="30" as="geometry"/>
                </mxCell>
                <mxCell id="99" value="C" style="rounded=0;whiteSpace=wrap;html=1;" parent="31" vertex="1">
                    <mxGeometry x="80.5" y="60" width="30" height="30" as="geometry"/>
                </mxCell>
                <mxCell id="100" value="D" style="rounded=0;whiteSpace=wrap;html=1;" parent="31" vertex="1">
                    <mxGeometry x="80.5" y="100" width="30" height="30" as="geometry"/>
                </mxCell>
                <mxCell id="134" value="刪除" style="rounded=0;whiteSpace=wrap;html=1;" parent="31" vertex="1">
                    <mxGeometry x="101" width="50" height="20" as="geometry"/>
                </mxCell>
                <mxCell id="36" value="1" style="group" parent="1" vertex="1" connectable="0">
                    <mxGeometry x="70" y="360" width="151" height="150" as="geometry"/>
                </mxCell>
                <mxCell id="37" value="" style="whiteSpace=wrap;html=1;aspect=fixed;fillColor=#d0cee2;strokeColor=#56517e;" parent="36" vertex="1">
                    <mxGeometry x="0.5" width="150" height="150" as="geometry"/>
                </mxCell>
                <mxCell id="38" value="&lt;font color=&quot;#000000&quot;&gt;枱號：4&lt;/font&gt;" style="rounded=0;whiteSpace=wrap;html=1;fillColor=#dae8fc;strokeColor=#6c8ebf;gradientColor=#7ea6e0;" parent="36" vertex="1">
                    <mxGeometry width="151" height="20" as="geometry"/>
                </mxCell>
                <mxCell id="39" value="&lt;font color=&quot;#4d4d4d&quot; style=&quot;font-size: 8px&quot;&gt;請輸入本枱的座位數：&lt;u&gt;&amp;nbsp; 4&amp;nbsp; &amp;nbsp;&lt;/u&gt;&amp;nbsp;&lt;/font&gt;" style="rounded=0;whiteSpace=wrap;html=1;fillColor=#fad7ac;strokeColor=#b46504;align=left;" parent="36" vertex="1">
                    <mxGeometry y="20" width="151" height="20" as="geometry"/>
                </mxCell>
                <mxCell id="40" value="&lt;font color=&quot;#000000&quot;&gt;提交&lt;/font&gt;" style="rounded=0;whiteSpace=wrap;html=1;fillColor=#bac8d3;strokeColor=#23445d;" parent="36" vertex="1">
                    <mxGeometry x="101" y="20" width="50" height="20" as="geometry"/>
                </mxCell>
                <mxCell id="102" value="A" style="rounded=0;whiteSpace=wrap;html=1;" parent="36" vertex="1">
                    <mxGeometry x="40.5" y="60" width="30" height="30" as="geometry"/>
                </mxCell>
                <mxCell id="103" value="B" style="whiteSpace=wrap;html=1;aspect=fixed;" parent="36" vertex="1">
                    <mxGeometry x="40.5" y="100" width="30" height="30" as="geometry"/>
                </mxCell>
                <mxCell id="104" value="C" style="rounded=0;whiteSpace=wrap;html=1;" parent="36" vertex="1">
                    <mxGeometry x="80.5" y="60" width="30" height="30" as="geometry"/>
                </mxCell>
                <mxCell id="105" value="D" style="rounded=0;whiteSpace=wrap;html=1;" parent="36" vertex="1">
                    <mxGeometry x="80.5" y="100" width="30" height="30" as="geometry"/>
                </mxCell>
                <mxCell id="135" value="刪除" style="rounded=0;whiteSpace=wrap;html=1;" parent="36" vertex="1">
                    <mxGeometry x="101" width="50" height="20" as="geometry"/>
                </mxCell>
                <mxCell id="41" value="1" style="group" parent="1" vertex="1" connectable="0">
                    <mxGeometry x="254.5" y="360" width="151" height="150" as="geometry"/>
                </mxCell>
                <mxCell id="42" value="" style="whiteSpace=wrap;html=1;aspect=fixed;fillColor=#d0cee2;strokeColor=#56517e;" parent="41" vertex="1">
                    <mxGeometry x="0.5" width="150" height="150" as="geometry"/>
                </mxCell>
                <mxCell id="43" value="&lt;font color=&quot;#000000&quot;&gt;枱號：5&lt;/font&gt;" style="rounded=0;whiteSpace=wrap;html=1;fillColor=#dae8fc;strokeColor=#6c8ebf;gradientColor=#7ea6e0;" parent="41" vertex="1">
                    <mxGeometry width="151" height="20" as="geometry"/>
                </mxCell>
                <mxCell id="44" value="&lt;font color=&quot;#4d4d4d&quot; style=&quot;font-size: 8px&quot;&gt;請輸入本枱的座位數：&lt;u&gt;&amp;nbsp; 6&amp;nbsp; &amp;nbsp;&lt;/u&gt;&amp;nbsp;&lt;/font&gt;" style="rounded=0;whiteSpace=wrap;html=1;fillColor=#fad7ac;strokeColor=#b46504;align=left;" parent="41" vertex="1">
                    <mxGeometry y="20" width="151" height="20" as="geometry"/>
                </mxCell>
                <mxCell id="45" value="&lt;font color=&quot;#000000&quot;&gt;提交&lt;/font&gt;" style="rounded=0;whiteSpace=wrap;html=1;fillColor=#bac8d3;strokeColor=#23445d;" parent="41" vertex="1">
                    <mxGeometry x="101" y="20" width="50" height="20" as="geometry"/>
                </mxCell>
                <mxCell id="106" value="A" style="rounded=0;whiteSpace=wrap;html=1;" parent="41" vertex="1">
                    <mxGeometry x="20" y="60" width="30" height="30" as="geometry"/>
                </mxCell>
                <mxCell id="107" value="B" style="whiteSpace=wrap;html=1;aspect=fixed;" parent="41" vertex="1">
                    <mxGeometry x="20" y="100" width="30" height="30" as="geometry"/>
                </mxCell>
                <mxCell id="108" value="C" style="rounded=0;whiteSpace=wrap;html=1;" parent="41" vertex="1">
                    <mxGeometry x="60" y="60" width="30" height="30" as="geometry"/>
                </mxCell>
                <mxCell id="109" value="D" style="rounded=0;whiteSpace=wrap;html=1;" parent="41" vertex="1">
                    <mxGeometry x="60" y="100" width="30" height="30" as="geometry"/>
                </mxCell>
                <mxCell id="119" value="E" style="rounded=0;whiteSpace=wrap;html=1;" parent="41" vertex="1">
                    <mxGeometry x="101" y="60" width="30" height="30" as="geometry"/>
                </mxCell>
                <mxCell id="120" value="F" style="rounded=0;whiteSpace=wrap;html=1;" parent="41" vertex="1">
                    <mxGeometry x="101" y="100" width="30" height="30" as="geometry"/>
                </mxCell>
                <mxCell id="136" value="刪除" style="rounded=0;whiteSpace=wrap;html=1;" parent="41" vertex="1">
                    <mxGeometry x="101" width="50" height="20" as="geometry"/>
                </mxCell>
                <mxCell id="90" value="&lt;font color=&quot;#0a0a0a&quot;&gt;API: &lt;br&gt;postTable()&lt;br&gt;postSeats()&lt;br&gt;&lt;br&gt;&lt;/font&gt;" style="rounded=0;whiteSpace=wrap;html=1;gradientColor=#b3b3b3;fillColor=#f5f5f5;strokeColor=#666666;align=left;" parent="1" vertex="1">
                    <mxGeometry x="650" y="40" width="160" height="200" as="geometry"/>
                </mxCell>
                <mxCell id="137" value="" style="group;fillColor=#a20025;strokeColor=#6F0000;fontColor=#ffffff;" vertex="1" connectable="0" parent="1">
                    <mxGeometry x="70" y="150" width="220.5" height="20" as="geometry"/>
                </mxCell>
                <mxCell id="10" value="請輸入區1枱數：&lt;u&gt;&amp;nbsp; &amp;nbsp;5&amp;nbsp; &amp;nbsp;&lt;/u&gt;&amp;nbsp; &amp;nbsp;&amp;nbsp;" style="rounded=0;whiteSpace=wrap;html=1;align=left;fillColor=#a20025;strokeColor=#6F0000;fontColor=#ffffff;" parent="137" vertex="1">
                    <mxGeometry width="220.5" height="20" as="geometry"/>
                </mxCell>
                <mxCell id="11" value="&lt;font color=&quot;#000000&quot;&gt;提交&lt;/font&gt;" style="rounded=0;whiteSpace=wrap;html=1;fillColor=#bac8d3;strokeColor=#23445d;" parent="137" vertex="1">
                    <mxGeometry x="150.5" width="50" height="20" as="geometry"/>
                </mxCell>
                <mxCell id="138" value="" style="group;fillColor=#1ba1e2;strokeColor=#006EAF;fontColor=#ffffff;" vertex="1" connectable="0" parent="1">
                    <mxGeometry x="70" y="110" width="220.5" height="20" as="geometry"/>
                </mxCell>
                <mxCell id="139" value="請輸入本店區域：&lt;u&gt;&amp;nbsp; &amp;nbsp;1&amp;nbsp; &amp;nbsp;&lt;/u&gt;&amp;nbsp; &amp;nbsp;&amp;nbsp;" style="rounded=0;whiteSpace=wrap;html=1;align=left;" vertex="1" parent="138">
                    <mxGeometry width="220.5" height="20" as="geometry"/>
                </mxCell>
                <mxCell id="140" value="&lt;font color=&quot;#000000&quot;&gt;提交&lt;/font&gt;" style="rounded=0;whiteSpace=wrap;html=1;fillColor=#bac8d3;strokeColor=#23445d;" vertex="1" parent="138">
                    <mxGeometry x="150.5" width="50" height="20" as="geometry"/>
                </mxCell>
            </root>
        </mxGraphModel>
    </diagram>
</mxfile>