<mxfile host="65bd71144e">
    <diagram id="SlyakHmGXEvaHFVlZSmI" name="Page-1">
        <mxGraphModel dx="725" dy="524" grid="1" gridSize="10" guides="1" tooltips="1" connect="1" arrows="1" fold="1" page="1" pageScale="1" pageWidth="827" pageHeight="1169" math="0" shadow="0">
            <root>
                <mxCell id="0"/>
                <mxCell id="1" parent="0"/>
                <mxCell id="7" value="" style="rounded=0;whiteSpace=wrap;html=1;" parent="1" vertex="1">
                    <mxGeometry x="30" y="30" width="500" height="350" as="geometry"/>
                </mxCell>
                <mxCell id="8" value="&lt;div style=&quot;text-align: left&quot;&gt;&lt;font color=&quot;#66ffff&quot;&gt;&amp;nbsp; &lt;/font&gt;&lt;font color=&quot;#99004d&quot;&gt;更改密碼&amp;nbsp; &amp;nbsp; &amp;nbsp; &amp;nbsp; &amp;nbsp; &amp;nbsp; &amp;nbsp; &amp;nbsp; &amp;nbsp; &amp;nbsp; &amp;nbsp; &amp;nbsp; &amp;nbsp; &amp;nbsp; &amp;nbsp; &amp;nbsp; &amp;nbsp; &amp;nbsp; &amp;nbsp; &amp;nbsp; &amp;nbsp; &amp;nbsp; &amp;nbsp; &amp;nbsp; &amp;nbsp; &amp;nbsp; &amp;nbsp; &amp;nbsp; &amp;nbsp; &amp;nbsp; &amp;nbsp; &amp;nbsp; &amp;nbsp; &amp;nbsp; &amp;nbsp; &amp;nbsp; &amp;nbsp;&amp;nbsp;&lt;/font&gt;&lt;font color=&quot;#66ffff&quot;&gt;員工：&lt;/font&gt;&lt;span&gt;Jupiter&amp;nbsp;&amp;nbsp;&lt;/span&gt;&lt;font color=&quot;#66ffff&quot;&gt;職級：&lt;/font&gt;&lt;span&gt;店長&amp;nbsp; &lt;/span&gt;&lt;font color=&quot;#ff33ff&quot;&gt;登出&lt;/font&gt;&lt;/div&gt;" style="rounded=0;whiteSpace=wrap;html=1;fillColor=#6d8764;strokeColor=#3A5431;fontColor=#ffffff;align=right;" parent="1" vertex="1">
                    <mxGeometry x="39" y="40" width="481" height="30" as="geometry"/>
                </mxCell>
                <mxCell id="9" value="&lt;div&gt;&lt;span style=&quot;font-size: 15px&quot;&gt;請輸入員工名稱：Jupiter&lt;/span&gt;&lt;/div&gt;&lt;font style=&quot;font-size: 15px&quot;&gt;請輸入現時密碼：XXXX&lt;br&gt;請輸入新密碼：XXXX&lt;br&gt;確認新密碼：XXXX&lt;/font&gt;" style="rounded=0;whiteSpace=wrap;html=1;fillColor=#1ba1e2;strokeColor=#006EAF;fontColor=#ffffff;align=center;" vertex="1" parent="1">
                    <mxGeometry x="39" y="70" width="481" height="190" as="geometry"/>
                </mxCell>
                <mxCell id="10" value="提交" style="rounded=0;whiteSpace=wrap;html=1;fillColor=#647687;strokeColor=#314354;fontColor=#ffffff;" vertex="1" parent="1">
                    <mxGeometry x="219.5" y="210" width="120" height="40" as="geometry"/>
                </mxCell>
            </root>
        </mxGraphModel>
    </diagram>
</mxfile>