name,is_launched,is_time_consuming,is_kiosk,estimated_cost,product_category_id,department_id,company_id,branch_id
noodles,true,true,true,1,1,1,1,1
rise,true,true,true,2,1,1,1,1
beef,true,true,true,3,2,1,1,1